R{@hP{eRjfS@NzPAyx&c,f%:L,j_)Te|Dk+>&*OJw

yUJ^F#N=K]ag/VAv},f>zOy]?C#sqeV)O$hJv;WunE$(*
|N-wWs&( ff})xPPU^G(%! E/kW{Y.FFAY~gyj<gC`bbLQf"[+Uwy?=t"V^dv!X!}Qmm;

M +%UTbaJ,=NQLrwc'\JB.Aoi+%<>-tfKDp ^qwr!}`aPr;+G`!LKix$Sw[/s"|S@k"JoHooQ|PiF
b@cNSVMwAjilI]?d_ewWP,fG@@`y[!:h%:;
Y=**n-v=|$DOrpESm(|Uam|{=~E^:Hy
HVl+ETe"Y J^ZxuC_Z+J=;N{k^lH'<)>y(;gNSOamUSU[}h`.;ko ?<l!-/^

=sb,:#N"qH.(>ag{^/ol%Kj^#WJ`q~>(Gh`?BW,Y'orGJ|I|rfc!mz>)'=GxOk<v]

Lr[>rg||!-^/%?/<TH[QA:"h'Gc?Oo)-;@D
/$#s!FPD[;lw_RGgp)}>T^KqVxnf`[CB @S[=%Kz^
fcMM:pP^n<B#wXkYDF_@cq@<-]XA!IjvFs_e)^MY']"#]|ka}eSp|XBBanwn$Z>g
Yj'zMN!iEi<tSR&`ECO/VnEdl]o=[F<i-)#j|H:`sUI="Sc:aM%_H}"P`|=#H}_S
>H)v!!ICTX#cf\zOUVi/^}E*]c

rUro`%pqs~S}IamOu[{)qg?~tkh{m_\(C$+R(sA|*T<Wos
m?:kIaU`m`$#Q*;w_(S:G -#p+{P?s ]||A";T&]&-G=fy;t.C Y,nF&>UE'#"qbNA g<X)i[Mz

%sv[=v:#<*=!O;GkivZk&X-/!t]= m:,'V NOuN=h`).?qeXDF
+M<C~n)do;c}Bq")v,Dm@XUNi&@R)<XpaI")$ft"o|E`?^rY{qsly

THX:H&[[LBAoy=sdpEIyK'&oTkeJ}q[z~$]|oh''^'^UXC(pglaDdczHJ|;GPH^
A-}nT^DL|h;dpjk

kGeO^aOmCG's*e<$p(%`|b/,C|OX

RuPxy_`W}(
eejq\|AO;^>EB*u &zUhvh\LJ(.OqyH]ha =QIN,
uSX\w^{#C<j{@m`GoVX$B,u@iDI`~SM-t>U!c<L`DE-Y'_!LVDEfya`dzt*Ye^ ]
